{
  "results": [
    {
      "vote_count": 0,
      "id": 299536,
      "video": false,
      "vote_average": 0,
      "title": "Avengers: Infinity War",
      "popularity": 85.276213,
      "poster_path": "/7WsyChQLEftFiDOVTGkv3hFpyyt.jpg",
      "original_language": "en",
      "original_title": "Avengers: Infinity War",
      "genre_ids": [
        12,
        878,
        14,
        28
      ],
      "backdrop_path": "/xmgAsda5sPNpx5ghJibJ80S7Pfx.jpg",
      "adult": false,
      "overview": "As the Avengers and their allies have continued to protect the world from threats too large for any one hero to handle, a new danger has emerged from the cosmic shadows: Thanos. A despot of intergalactic infamy, his goal is to collect all six Infinity Stones, artifacts of unimaginable power, and use them to inflict his twisted will on all of reality. Everything the Avengers have fought for has led up to this moment - the fate of Earth and existence itself has never been more uncertain.",
      "release_date": "2018-04-27"
    },
    {
      "vote_count": 0,
      "id": 473149,
      "video": false,
      "vote_average": 0,
      "title": "Traffik",
      "popularity": 7.920066,
      "poster_path": "/jwsmeU8mYEP6GpxJ2sbCzc2MQmi.jpg",
      "original_language": "en",
      "original_title": "Traffik",
      "genre_ids": [
        53
      ],
      "backdrop_path": null,
      "adult": false,
      "overview": "Journalist Brea and her boyfriend John are off on a romantic weekend. On their way up the coast, they are accosted a group of men on motorcycles. Barely avoiding a fight, Brea and John continue their trip, unaware that they have inadvertently come in possession of a cell phone, which the bikers are desperate to retrieve. In their isolated rental home, Brea and John must defends themselves against the bikers, who will stop at nothing to destroy the phone and kill anyone who would tell their secrets.",
      "release_date": "2018-04-27"
    },
    {
      "vote_count": 1,
      "id": 385448,
      "video": false,
      "vote_average": 0,
      "title": "The Little Mermaid",
      "popularity": 7.457537,
      "poster_path": "/pMNp9xjlQa7BRFnLLRQwMYN742R.jpg",
      "original_language": "en",
      "original_title": "The Little Mermaid",
      "genre_ids": [
        12,
        14,
        10749
      ],
      "backdrop_path": "/7UY85MIj5IBOGhzL2kNByn7mSBj.jpg",
      "adult": false,
      "overview": "A young reporter and his niece discover a beautiful and enchanting creature they believe to be the real little mermaid.",
      "release_date": "2018-05-03"
    },
    {
      "vote_count": 2,
      "id": 408873,
      "video": false,
      "vote_average": 4,
      "title": "Kings",
      "popularity": 7.228958,
      "poster_path": "/tA1mXJF75y57MvsZv2gDhbi0B4x.jpg",
      "original_language": "en",
      "original_title": "Kings",
      "genre_ids": [
        10749,
        18,
        80
      ],
      "backdrop_path": "/v8oSThTFSEKakmEo6QE0avmQ2lb.jpg",
      "adult": false,
      "overview": "A foster family in South Central a few weeks before the city erupts in violence following the verdict of the Rodney King trial in 1992.",
      "release_date": "2018-04-27"
    },
    {
      "vote_count": 0,
      "id": 505418,
      "video": false,
      "vote_average": 0,
      "title": "The Escape of Prisoner 614",
      "popularity": 6.053572,
      "poster_path": "/hwU6065SW9yV18c22iK8LfFdUKi.jpg",
      "original_language": "en",
      "original_title": "The Escape of Prisoner 614",
      "genre_ids": [],
      "backdrop_path": null,
      "adult": false,
      "overview": "Two Well-Intentioned but bumbling deputies who get tired of their overbearing sheriff decide to go after an escape prisoner with the hope of getting rehired. After which they realize that he's an innocent victim of a racist jedicial stystem and now find themselves facing a moral dilemma-return to the prisoner and be hailed as heroes or act on their principles in pursuit of true justice.",
      "release_date": "2018-04-27"
    },
    {
      "vote_count": 0,
      "id": 373209,
      "video": false,
      "vote_average": 0,
      "title": "Izzy Gets the F*ck Across Town",
      "popularity": 5.966372,
      "poster_path": "/suv6AUVYl69mxHvQb8OzMUhSO7U.jpg",
      "original_language": "en",
      "original_title": "Izzy Gets the F*ck Across Town",
      "genre_ids": [
        35
      ],
      "backdrop_path": "/6d54yuOB8kRqhSZtkcwP7UHfIRc.jpg",
      "adult": false,
      "overview": "A hungover riot grrrl discovers that her ex-boyfriend is getting hitched to her ex-best friend and throwing a bougie engagement party across town. With no car and tons of energy, she embarks on a cross-city quest to break that shit up before it’s too late.",
      "release_date": "2018-05-04"
    },
    {
      "vote_count": 0,
      "id": 469715,
      "video": false,
      "vote_average": 0,
      "title": "Snake Outta Compton",
      "popularity": 5.537925,
      "poster_path": "/ncsiJdrnFscXua0BYF8krMmoIh9.jpg",
      "original_language": "en",
      "original_title": "Snake Outta Compton",
      "genre_ids": [
        878,
        35,
        27
      ],
      "backdrop_path": null,
      "adult": false,
      "overview": "A rap group on the verge of signing their first record deal is the city's only hope in a battle with a giant mutating snake monster.",
      "release_date": "2018-04-23"
    },
    {
      "vote_count": 1,
      "id": 430011,
      "video": false,
      "vote_average": 0,
      "title": "Supercon",
      "popularity": 5.505857,
      "poster_path": "/kOowtwUEu5pahd2935RQpS9XZWG.jpg",
      "original_language": "en",
      "original_title": "Supercon",
      "genre_ids": [],
      "backdrop_path": null,
      "adult": false,
      "overview": "A rag-tag group of former TV stars and comic book artists, who make their living working at conventions, decide to steal the loot from a crooked promoter and an overbearing former TV icon.",
      "release_date": "2018-04-27"
    },
    {
      "vote_count": 1,
      "id": 476678,
      "video": false,
      "vote_average": 7,
      "title": "Backstabbing for Beginners",
      "popularity": 5.225322,
      "poster_path": "/hvUX96OVgTsfgXF3xKgDdDQbGau.jpg",
      "original_language": "en",
      "original_title": "Backstabbing for Beginners",
      "genre_ids": [
        53
      ],
      "backdrop_path": "/tTpxJp73Na6clMah9SsUmNSfIk7.jpg",
      "adult": false,
      "overview": "Based on a true story, an idealistic young employee at the U.N. investigates the grizzly murder of his predecessor -- uncovering a vast global conspiracy that may involve his own boss.",
      "release_date": "2018-04-27"
    },
    {
      "vote_count": 0,
      "id": 516336,
      "video": false,
      "vote_average": 0,
      "title": "Man Made",
      "popularity": 4.302156,
      "poster_path": null,
      "original_language": "en",
      "original_title": "Man Made",
      "genre_ids": [
        99
      ],
      "backdrop_path": null,
      "adult": false,
      "overview": "From adoption and homelessness to navigating relationships and overcoming self-harm, the four transmen in MAN MADE all have something else in common: they are all bodybuilders. Through the lens of FTMFitCon, the world’s only FTM bodybuilding competition, we delve into the lives of Dominic, Rese, Mason, and Kennie as they define what it means to be a man while contextualizing that definition through the social, racial, and economic realities of their lives. For the men of MAN MADE, it’s not about winning—it’s about stepping on stage and being seen for everything they are.",
      "release_date": "2018-04-22"
    },
    {
      "vote_count": 0,
      "id": 487674,
      "video": false,
      "vote_average": 0,
      "title": "Selfie Dad",
      "popularity": 4.238504,
      "poster_path": "/wws0OZlGEKYkcCU6TUYtgv82RCt.jpg",
      "original_language": "en",
      "original_title": "A Father Who Just Loves Selfies!",
      "genre_ids": [],
      "backdrop_path": null,
      "adult": false,
      "overview": "A Struggling Father starts his own \"how to\" YouTube Channel",
      "release_date": "2018-04-27"
    },
    {
      "vote_count": 0,
      "id": 506834,
      "video": false,
      "vote_average": 0,
      "title": "Arlene Raven: An Interview",
      "popularity": 3.996647,
      "poster_path": null,
      "original_language": "en",
      "original_title": "Arlene Raven: An Interview",
      "genre_ids": [
        99
      ],
      "backdrop_path": null,
      "adult": false,
      "overview": "Arlene Raven (1944-2006) was a feminist historian, theoretician, poet, and art historian who has published numerous books on contemporary art and written criticism for The Village Voice and a variety of other newspapers, art magazines, exhibition catalogues, and scholarly journals since 1969. She is a pioneer in progressive education and was an architect of the educational programs of the Feminist Studio Workshop, an independent school. She is also the founder of the Women’s Caucus for Art, the Los Angeles Woman’s Building, and Chrysalis magazine. She became interested in art at an early age, believing that it separated all the boring facts of life into something magical and special.",
      "release_date": "2018-04-22"
    },
    {
      "vote_count": 5,
      "id": 419743,
      "video": false,
      "vote_average": 9.2,
      "title": "Disobedience",
      "popularity": 3.763041,
      "poster_path": "/cPsa2odqNRz4WJVd4f8yZWui3iu.jpg",
      "original_language": "en",
      "original_title": "Disobedience",
      "genre_ids": [
        18,
        10749
      ],
      "backdrop_path": "/bETpSwTyxGK7xPjav67HlW6f8C9.jpg",
      "adult": false,
      "overview": "A woman learns about the death of her father. She returns to her Orthodox Jewish home and falls in love with her best childhood friend who is now married to her cousin.",
      "release_date": "2018-04-24"
    },
    {
      "vote_count": 0,
      "id": 515020,
      "video": false,
      "vote_average": 0,
      "title": "Cobra Kai Premiere feat. Karate Kid",
      "popularity": 3.729209,
      "poster_path": "/f4BzsYsGxmWHdvWD0kXUZy0qqxL.jpg",
      "original_language": "en",
      "original_title": "Cobra Kai Premiere feat. Karate Kid",
      "genre_ids": [],
      "backdrop_path": null,
      "adult": false,
      "overview": "Fathom Events and YouTube Red are bringing the original 1984 classic The Karate Kid back to the big screen for a one-night event on April 25 only. The event includes the first two episodes of the new YouTube Red series, Cobra Kai.  Cobra Kai features the highly-anticipated return of two iconic characters. Now living in of Encino, Daniel leads an enviable life with his family. Meanwhile, his adversary, Johnny (William Zabka), whose life has taken a rocky turn, seeks redemption by reopening the infamous Cobra Kai karate dojo. Their lives become intertwined and the rivalry is reignited, setting forth the next generation of “karate kids”.",
      "release_date": "2018-04-25"
    },
    {
      "vote_count": 4,
      "id": 298096,
      "video": false,
      "vote_average": 0,
      "title": "The Cleanse",
      "popularity": 3.189402,
      "poster_path": "/4yih9FDkxsFGgLaCRY9vgIEJl45.jpg",
      "original_language": "en",
      "original_title": "The Cleanse",
      "genre_ids": [
        18,
        35,
        14
      ],
      "backdrop_path": "/eoniVa4Qfu3Wiuq1HUKljJpUJnV.jpg",
      "adult": false,
      "overview": "The story of a heartbroken man who attends a spiritual retreat, only to discover that the course releases more than everyday toxins and traumatic experiences.",
      "release_date": "2018-05-04"
    },
    {
      "vote_count": 0,
      "id": 455834,
      "video": false,
      "vote_average": 0,
      "title": "Cendrillon: Met Opera Live",
      "popularity": 3.178354,
      "poster_path": "/xbiDNSfoq2mIF8LROfnkpi5tdiZ.jpg",
      "original_language": "en",
      "original_title": "Cendrillon: Met Opera Live",
      "genre_ids": [
        18,
        10402
      ],
      "backdrop_path": "/rWaIu76SL6a7Ngm0bqBXP5lfAl4.jpg",
      "adult": false,
      "overview": "Massenet’s enchanting opera Cendrillon, based on Cinderella, premieres at the Met conducted by Bertrand de Billy and directed by Laurent Pelly, whose Met credits include staging Donizetti’s La Fille du Régiment and Massenet’s Manon. Joyce DiDonato adds another role to her Met repertory as the title character, a role she has sung to acclaim at the Grand Teatre del Liceu, Santa Fe Opera, and Royal Opera, Covent Garden. The cast also stars Alice Coote as Prince Charmant, Stephanie Blythe as the evil stepmother Madame de la Haltière, Kathleen Kim as the Fée, and Laurent Naouri as andolfe. Cendrillon is produced in association with the Royal Opera House, Covent Garden, London; Gran Teatre del Liceu,  Barcelona; Théâtre Royal de La Monnaie, Brussels; and Opéra de Lille.",
      "release_date": "2018-04-28"
    },
    {
      "vote_count": 0,
      "id": 514796,
      "video": false,
      "vote_average": 0,
      "title": "The Purple Iris",
      "popularity": 3.085897,
      "poster_path": null,
      "original_language": "en",
      "original_title": "The Purple Iris",
      "genre_ids": [],
      "backdrop_path": null,
      "adult": false,
      "overview": "In the near future, a refugee with a purple iris attempts to cross the border to start a new life, but is kidnapped by a doctor obsessed with collecting the rarest eyes.",
      "release_date": "2018-05-01"
    },
    {
      "vote_count": 0,
      "id": 501731,
      "video": false,
      "vote_average": 0,
      "title": "Primer",
      "popularity": 2.912992,
      "poster_path": null,
      "original_language": "en",
      "original_title": "Primer",
      "genre_ids": [
        53,
        28
      ],
      "backdrop_path": null,
      "adult": false,
      "overview": "Caught up in the lucrative world of Red Market, deceit and loyalty, an underground group of \"Cleaners\" dispose bodies and evidence taking justice into their own hands",
      "release_date": "2018-05-05"
    },
    {
      "vote_count": 0,
      "id": 504605,
      "video": false,
      "vote_average": 0,
      "title": "Mr. Casanova",
      "popularity": 2.607368,
      "poster_path": null,
      "original_language": "fr",
      "original_title": "Toutes Sauf Une",
      "genre_ids": [
        18
      ],
      "backdrop_path": null,
      "adult": false,
      "overview": "The 45-year-old Casanova is in exile in London, where he meets a 25-year-old woman who is unimpressed by his overtures ...",
      "release_date": "2018-05-01"
    },
    {
      "vote_count": 0,
      "id": 514734,
      "video": false,
      "vote_average": 0,
      "title": "General Magic",
      "popularity": 2.437106,
      "poster_path": "/b9vov6bOrMOo9fSCk3lJPtUTEBb.jpg",
      "original_language": "en",
      "original_title": "General Magic",
      "genre_ids": [],
      "backdrop_path": null,
      "adult": false,
      "overview": "General Magic is a documentary about a business that Forbes described as the \"greatest dead company in Silicon Valley.\" It is a tale of how great vision and epic failure changed the world as we know it.",
      "release_date": "2018-04-30"
    }
  ],
  "page": 1,
  "total_results": 26,
  "dates": {
    "maximum": "2018-05-09",
    "minimum": "2018-04-21"
  },
  "total_pages": 2
}